{
  "content": [
    {
      "id": 1,
      "brewery_id": 812,
      "name": "Hocus Pocus",
      "cat_id": 11,
      "style_id": 116,
      "abv": 4.5,
      "ibu": 0.0,
      "srm": 0.0,
      "upc": 0,
      "filepath": "",
      "descript": "Our take on a classic summer ale.  A toast to weeds, rays, and summer haze.  A light, crisp ale for mowing lawns, hitting lazy fly balls, and communing with nature, Hocus Pocus is offered up as a summer sacrifice to clodless days.\r\n\r\nIts malty sweetness finishes tart and crisp and is best apprediated with a wedge of orange.",
      "add_user": 0,
      "last_mod": "2010-07-22T18:00:20.000+00:00"
    },
    {
      "id": 2,
      "brewery_id": 1,
      "name": "Grimbergen Blonde",
      "cat_id": 1,
      "style_id": 1,
      "abv": 6.7,
      "ibu": 0.0,
      "srm": 0.0,
      "upc": 0,
      "filepath": "",
      "descript": "",
      "add_user": 0,
      "last_mod": "2010-07-22T18:00:20.000+00:00"
    },
    {
      "id": 3,
      "brewery_id": 1,
      "name": "Widdershins Barleywine",
      "cat_id": 1,
      "style_id": 1,
      "abv": 9.1,
      "ibu": 0.0,
      "srm": 0.0,
      "upc": 0,
      "filepath": "",
      "descript": "",
      "add_user": 0,
      "last_mod": "2010-07-22T18:00:20.000+00:00"
    },
    {
      "id": 4,
      "brewery_id": 1,
      "name": "Lucifer",
      "cat_id": 1,
      "style_id": 1,
      "abv": 8.5,
      "ibu": 0.0,
      "srm": 0.0,
      "upc": 0,
      "filepath": "",
      "descript": "",
      "add_user": 0,
      "last_mod": "2010-07-22T18:00:20.000+00:00"
    },
    {
      "id": 5,
      "brewery_id": 1,
      "name": "Bitter",
      "cat_id": 1,
      "style_id": 1,
      "abv": 4.0,
      "ibu": 0.0,
      "srm": 0.0,
      "upc": 0,
      "filepath": "",
      "descript": "",
      "add_user": 0,
      "last_mod": "2010-07-22T18:00:20.000+00:00"
    },
    {
      "id": 6,
      "brewery_id": 1385,
      "name": "Winter Warmer",
      "cat_id": 1,
      "style_id": 13,
      "abv": 5.2,
      "ibu": 0.0,
      "srm": 0.0,
      "upc": 0,
      "filepath": "",
      "descript": "",
      "add_user": 0,
      "last_mod": "2010-07-22T18:00:20.000+00:00"
    },
    {
      "id": 7,
      "brewery_id": 1,
      "name": "Winter Welcome 2007-2008",
      "cat_id": 1,
      "style_id": 1,
      "abv": 6.0,
      "ibu": 0.0,
      "srm": 0.0,
      "upc": 0,
      "filepath": "",
      "descript": "",
      "add_user": 0,
      "last_mod": "2010-07-22T18:00:20.000+00:00"
    },
    {
      "id": 8,
      "brewery_id": 1099,
      "name": "Oatmeal Stout",
      "cat_id": 3,
      "style_id": 42,
      "abv": 5.0,
      "ibu": 0.0,
      "srm": 0.0,
      "upc": 0,
      "filepath": "",
      "descript": "",
      "add_user": 0,
      "last_mod": "2010-07-22T18:00:20.000+00:00"
    },
    {
      "id": 9,
      "brewery_id": 1,
      "name": "Espresso Porter",
      "cat_id": 1,
      "style_id": 1,
      "abv": 0.0,
      "ibu": 0.0,
      "srm": 0.0,
      "upc": 0,
      "filepath": "",
      "descript": "",
      "add_user": 0,
      "last_mod": "2010-07-22T18:00:20.000+00:00"
    },
    {
      "id": 10,
      "brewery_id": 545,
      "name": "Chocolate Stout",
      "cat_id": 3,
      "style_id": 42,
      "abv": 0.0,
      "ibu": 0.0,
      "srm": 0.0,
      "upc": 0,
      "filepath": "",
      "descript": "",
      "add_user": 0,
      "last_mod": "2010-07-22T18:00:20.000+00:00"
    }
  ],
  "pageable": {
    "pageNumber": 0,
    "pageSize": 10,
    "sort": {
      "empty": true,
      "unsorted": true,
      "sorted": false
    },
    "offset": 0,
    "unpaged": false,
    "paged": true
  },
  "totalElements": 5901,
  "totalPages": 591,
  "last": false,
  "size": 10,
  "number": 0,
  "sort": {
    "empty": true,
    "unsorted": true,
    "sorted": false
  },
  "first": true,
  "numberOfElements": 10,
  "empty": false
}